1220925/pv2/dump.vcd
$date
Tue Jun 17 12:58:37 2025
$end
$version
Aldec HDL Simulator Version 15.0.261
$end
$timescale
1 ps
$end

$scope module tb_bcd_adder_3digit_with_ff $end
$var wire 12 ! Sum [11:0] $end
$var wire 1 " Cout $end
$var reg 1 # clk $end
$var reg 12 $ A [11:0] $end
$var reg 12 % B [11:0] $end
$var reg 1 & Cin $end
$var integer 32 ' fout $end
$var integer 32 ( ferr $end

$scope module uut $end

$scope module A0 $end
$var reg 4 ) Q [3:0] $end
$upscope $end


$scope module A1 $end
$var reg 4 * Q [3:0] $end
$upscope $end


$scope module A2 $end
$var reg 4 + Q [3:0] $end
$upscope $end


$scope module B0 $end
$var reg 4 , Q [3:0] $end
$upscope $end


$scope module B1 $end
$var reg 4 - Q [3:0] $end
$upscope $end


$scope module B2 $end
$var reg 4 . Q [3:0] $end
$upscope $end


$scope module CinFF $end
$var reg 1 / Q $end
$upscope $end


$scope module S0 $end
$var reg 4 0 Q [3:0] $end
$upscope $end


$scope module S1 $end
$var reg 4 1 Q [3:0] $end
$upscope $end


$scope module S2 $end
$var reg 4 2 Q [3:0] $end
$upscope $end


$scope module CoutFF $end
$var reg 1 3 Q $end
$upscope $end

$upscope $end


$scope task check_result $end
$var reg 12 4 a_bcd [11:0] $end
$var reg 12 5 b_bcd [11:0] $end
$var reg 12 6 expected_sum [11:0] $end
$var reg 1 7 expected_cout $end
$var reg 12 8 actual_sum [11:0] $end
$var reg 1 9 actual_cout $end
$var integer 32 : a_val $end
$var integer 32 ; b_val $end
$var integer 32 < exp_sum $end
$var integer 32 = act_sum $end
$upscope $end

$upscope $end

$enddefinitions $end
$dumpvars
bx !
x"
0#
b100100011 $
b10001010110 %
0&
b10000000000000000000000000000011 '
b10000000000000000000000000000100 (
bx 4
bx 5
bx 6
x7
bx 8
x9
bx :
bx ;
bx <
bx =
$end
#800000
1#
#1600000
0#
#2400000
1#
0"
b10101111001 !
#3200000
b100100011 4
b10001010110 5
b10101111001 6
07
b10101111001 8
09
b1111011 :
b111001000 ;
b1001000011 <
b1001000011 =
b1 $
b100110011000 %
0#
#4000000
1#
#4800000
0#
#5600000
1#
b100110011001 !
#6400000
b1 4
b100110011000 5
b100110011001 6
b100110011001 8
b1 :
b1111100110 ;
b1111100111 <
b1111100111 =
b1001 $
b1 %
0#
#7200000
1#
#8000000
0#
#8800000
1#
b10000 !
#9600000
b1001 4
b1 5
b10000 6
b10000 8
b1001 :
b1 ;
b1010 <
b1010 =
b10100000000 $
b10100000000 %
0#
#10400000
1#
#11200000
0#
#12000000
1#
1"
b0 !
#12800000
b10100000000 4
b10100000000 5
b0 6
17
b0 8
19
b111110100 :
b111110100 ;
b0 <
b0 =
b10011001 $
b1 %
0#
#13600000
1#
#14400000
0#
#15200000
1#
0"
b100000000 !
#16000000
b10011001 4
b1 5
b100000000 6
07
b100000000 8
09
b1100011 :
b1 ;
b1100100 <
b1100100 =
b1100000000 $
b1100000000 %
0#
#16800000
1#
#17600000
0#
#18400000
1#
b11000000000 !
#19200000
b1100000000 4
b1100000000 5
b11000000000 6
b11000000000 8
b100101100 :
b100101100 ;
b1001011000 <
b1001011000 =
b0 $
b100110011001 %
0#
#20000000
1#
#20800000
0#
#21600000
1#
b100110011001 !
#22400000
b0 4
b100110011001 5
b100110011001 6
b100110011001 8
b0 :
b1111100111 ;
b1111100111 <
b1111100111 =
b100110011001 $
b1 %
0#
#23200000
1#
#24000000
0#
#24800000
1#
1"
b0 !
#25600000
b100110011001 4
b1 5
b0 6
17
b0 8
19
b1111100111 :
b1 ;
b0 <
b0 =
b1010000 $
b1010000 %
0#
#26400000
1#
#27200000
0#
#28000000
1#
0"
b100000000 !
#28800000
b1010000 4
b1010000 5
b10011001 6
07
b100000000 8
09
b110010 :
b110010 ;
b1100011 <
b1100100 =
